<?xml version="1.0" encoding="UTF-8" standalone="no"?>
<!-- Created with Inkscape (http://www.inkscape.org/) -->

<svg
   xmlns:dc="http://purl.org/dc/elements/1.1/"
   xmlns:cc="http://creativecommons.org/ns#"
   xmlns:rdf="http://www.w3.org/1999/02/22-rdf-syntax-ns#"
   xmlns:svg="http://www.w3.org/2000/svg"
   xmlns="http://www.w3.org/2000/svg"
   xmlns:sodipodi="http://sodipodi.sourceforge.net/DTD/sodipodi-0.dtd"
   xmlns:inkscape="http://www.inkscape.org/namespaces/inkscape"
   width="172mm"
   height="172mm"
   viewBox="0 0 172 172"
   version="1.1"
   id="svg2633"
   inkscape:export-filename="/home/ivan/Documents/BS/ux/logo/blockscope_logo_no-letters_black_magenta_200.png"
   inkscape:export-xdpi="51"
   inkscape:export-ydpi="51"
   inkscape:version="0.92.5 (2060ec1f9f, 2020-04-08)"
   sodipodi:docname="blockscope_logo_no-letters-question-mark.svg">
  <defs
     id="defs2627" />
  <sodipodi:namedview
     id="base"
     pagecolor="#ffffff"
     bordercolor="#666666"
     borderopacity="1.0"
     inkscape:pageopacity="0"
     inkscape:pageshadow="2"
     inkscape:zoom="1.4"
     inkscape:cx="64.848224"
     inkscape:cy="323.2192"
     inkscape:document-units="mm"
     inkscape:current-layer="layer1"
     showgrid="false"
     inkscape:window-width="2560"
     inkscape:window-height="1378"
     inkscape:window-x="0"
     inkscape:window-y="25"
     inkscape:window-maximized="1"
     inkscape:pagecheckerboard="true" />
  <metadata
     id="metadata2630">
    <rdf:RDF>
      <cc:Work
         rdf:about="">
        <dc:format>image/svg+xml</dc:format>
        <dc:type
           rdf:resource="http://purl.org/dc/dcmitype/StillImage" />
        <dc:title></dc:title>
      </cc:Work>
    </rdf:RDF>
  </metadata>
  <g
     inkscape:label="Layer 1"
     inkscape:groupmode="layer"
     id="layer1"
     transform="translate(0,-125)">
    <g
       id="g5674-2-1-4-8-8-3-1-9-2-1-4-3-6-0-7-4-6-0"
       transform="matrix(0.97966444,0,0,0.97966444,-17.305854,76.708616)"
       style="fill:#ffffff">
      <path
         transform="rotate(30,105.83873,135.90807)"
         d="m 149.54469,212.14358 c -9.02856,5.21264 -77.848822,5.21263 -86.877385,-10e-6 -9.028563,-5.21264 -43.438691,-64.81274 -43.43869,-75.23803 0,-10.42528 34.410134,-70.025376 43.438697,-75.238019 9.028564,-5.212643 77.848828,-5.21264 86.877388,4e-6 9.02856,5.212644 43.43869,64.812745 43.43869,75.238025 0,10.42529 -34.41013,70.02538 -43.4387,75.23803 z"
         inkscape:randomized="0"
         inkscape:rounded="0.12"
         inkscape:flatsided="true"
         sodipodi:arg2="1.5707963"
         sodipodi:arg1="1.0471976"
         sodipodi:r2="75.238029"
         sodipodi:r1="86.877388"
         sodipodi:cy="136.90555"
         sodipodi:cx="106.106"
         sodipodi:sides="6"
         id="path868-4-4-3-4-2-2-6-9-9-0-1-4-2-0-7-0-6-7-2-1-0-9"
         style="opacity:1;fill:#ffffff;fill-opacity:1;stroke:none;stroke-width:2.4000001;stroke-miterlimit:4;stroke-dasharray:none;stroke-opacity:1"
         sodipodi:type="star" />
    </g>
    <path
       transform="matrix(0.76338646,0.44074136,-0.44074136,0.76338646,65.458799,59.552967)"
       d="m 149.54469,212.14358 c -9.02856,5.21264 -77.848822,5.21263 -86.877385,-10e-6 -9.028563,-5.21264 -43.438691,-64.81274 -43.43869,-75.23803 0,-10.42528 34.410134,-70.025376 43.438697,-75.238019 9.028564,-5.212643 77.848828,-5.21264 86.877388,4e-6 9.02856,5.212644 43.43869,64.812745 43.43869,75.238025 0,10.42529 -34.41013,70.02538 -43.4387,75.23803 z"
       inkscape:randomized="0"
       inkscape:rounded="0.12"
       inkscape:flatsided="true"
       sodipodi:arg2="1.5707963"
       sodipodi:arg1="1.0471976"
       sodipodi:r2="75.238029"
       sodipodi:r1="86.877388"
       sodipodi:cy="136.90555"
       sodipodi:cx="106.106"
       sodipodi:sides="6"
       id="path868-4-4-3-4-2-2-6-9-9-0-1-4-2-0-7-0-6-7-2-1-0"
       style="opacity:1;fill:#000000;fill-opacity:1;stroke:none;stroke-width:2.4000001;stroke-miterlimit:4;stroke-dasharray:none;stroke-opacity:1"
       sodipodi:type="star" />
    <text
       xml:space="preserve"
       style="font-style:normal;font-weight:normal;font-size:27.59084702px;line-height:1.25;font-family:sans-serif;letter-spacing:0px;word-spacing:0px;fill:#ffffff;fill-opacity:1;stroke:none;stroke-width:0.68977118;"
       x="53.559391"
       y="254.05937"
       id="text2904"><tspan
         sodipodi:role="line"
         id="tspan2902"
         x="53.559391"
         y="254.05937"
         style="font-style:normal;font-variant:normal;font-weight:normal;font-stretch:normal;font-size:132.43606567px;font-family:'Abyssinica SIL';-inkscape-font-specification:'Abyssinica SIL, Normal';font-variant-ligatures:normal;font-variant-caps:normal;font-variant-numeric:normal;font-feature-settings:normal;text-align:start;writing-mode:lr-tb;text-anchor:start;fill:#ffffff;stroke-width:0.68977118;fill-opacity:1;">?</tspan></text>
  </g>
</svg>
